'code';'codeSystem';'displayName';'parentCodeSystemName';'concept_Beschreibung';'meaning';'hints';'orderNumber';'level';'type';'relationships';'einheit print';'einheit codiert'
'0';'1.2.40.0.34.5.38.4';'Maßnahme ohne regionale Zuordnung';'https://termgit.elga.gv.at/CodeSystem/appc-anatomie';'';'';'APPC: 1.2.40.0.34.5.38';'1';'0';'S';'';'';''
'0-1';'1.2.40.0.34.5.38.4';'Ganzkörper';'https://termgit.elga.gv.at/CodeSystem/appc-anatomie';'';'';'APPC: 1.2.40.0.34.5.38';'2';'1';'L';'';'';''
'0-2';'1.2.40.0.34.5.38.4';'Körperstamm';'https://termgit.elga.gv.at/CodeSystem/appc-anatomie';'';'';'APPC: 1.2.40.0.34.5.38';'3';'1';'L';'';'';''
'0-3';'1.2.40.0.34.5.38.4';'Teilkörper';'https://termgit.elga.gv.at/CodeSystem/appc-anatomie';'';'';'APPC: 1.2.40.0.34.5.38';'4';'1';'L';'';'';''
'0-4';'1.2.40.0.34.5.38.4';'Fetus';'https://termgit.elga.gv.at/CodeSystem/appc-anatomie';'';'';'APPC: 1.2.40.0.34.5.38';'5';'1';'L';'';'';''
'1';'1.2.40.0.34.5.38.4';'Schädel';'https://termgit.elga.gv.at/CodeSystem/appc-anatomie';'';'';'APPC: 1.2.40.0.34.5.38';'6';'0';'S';'';'';''
'1-1';'1.2.40.0.34.5.38.4';'Hirn';'https://termgit.elga.gv.at/CodeSystem/appc-anatomie';'';'';'APPC: 1.2.40.0.34.5.38';'7';'1';'S';'';'';''
'1-1-1';'1.2.40.0.34.5.38.4';'Kleinhirnbrückenwinkel';'https://termgit.elga.gv.at/CodeSystem/appc-anatomie';'';'';'APPC: 1.2.40.0.34.5.38';'8';'2';'L';'';'';''
'1-1-2';'1.2.40.0.34.5.38.4';'Sella';'https://termgit.elga.gv.at/CodeSystem/appc-anatomie';'';'';'APPC: 1.2.40.0.34.5.38';'9';'2';'L';'';'';''
'1-2';'1.2.40.0.34.5.38.4';'Gesichtsschädel';'https://termgit.elga.gv.at/CodeSystem/appc-anatomie';'';'';'APPC: 1.2.40.0.34.5.38';'10';'1';'S';'';'';''
'1-2-1';'1.2.40.0.34.5.38.4';'Orbita';'https://termgit.elga.gv.at/CodeSystem/appc-anatomie';'';'';'APPC: 1.2.40.0.34.5.38';'11';'2';'S';'';'';''
'1-2-1-1';'1.2.40.0.34.5.38.4';'Tränengang';'https://termgit.elga.gv.at/CodeSystem/appc-anatomie';'';'';'APPC: 1.2.40.0.34.5.38';'12';'3';'L';'';'';''
'1-2-1-2';'1.2.40.0.34.5.38.4';'Auge';'https://termgit.elga.gv.at/CodeSystem/appc-anatomie';'';'';'';'13';'3';'L';'';'';''
'1-2-2';'1.2.40.0.34.5.38.4';'Kiefer';'https://termgit.elga.gv.at/CodeSystem/appc-anatomie';'';'';'APPC: 1.2.40.0.34.5.38';'14';'2';'S';'';'';''
'1-2-2-1';'1.2.40.0.34.5.38.4';'Oberkiefer';'https://termgit.elga.gv.at/CodeSystem/appc-anatomie';'';'';'APPC: 1.2.40.0.34.5.38';'15';'3';'L';'';'';''
'1-2-2-2';'1.2.40.0.34.5.38.4';'Unterkiefer';'https://termgit.elga.gv.at/CodeSystem/appc-anatomie';'';'';'APPC: 1.2.40.0.34.5.38';'16';'3';'L';'';'';''
'1-2-2-3';'1.2.40.0.34.5.38.4';'Kiefergelenk';'https://termgit.elga.gv.at/CodeSystem/appc-anatomie';'';'';'APPC: 1.2.40.0.34.5.38';'17';'3';'L';'';'';''
'1-2-2-4';'1.2.40.0.34.5.38.4';'Zahn';'https://termgit.elga.gv.at/CodeSystem/appc-anatomie';'';'';'APPC: 1.2.40.0.34.5.38';'18';'3';'L';'';'';''
'1-2-3';'1.2.40.0.34.5.38.4';'Nasennebenhöhlen';'https://termgit.elga.gv.at/CodeSystem/appc-anatomie';'';'';'APPC: 1.2.40.0.34.5.38';'19';'2';'L';'';'';''
'1-2-4';'1.2.40.0.34.5.38.4';'Schläfenbein';'https://termgit.elga.gv.at/CodeSystem/appc-anatomie';'';'';'APPC: 1.2.40.0.34.5.38';'20';'2';'L';'';'';''
'1-2-5';'1.2.40.0.34.5.38.4';'Schädelbasis';'https://termgit.elga.gv.at/CodeSystem/appc-anatomie';'';'';'APPC: 1.2.40.0.34.5.38';'21';'2';'L';'';'';''
'1-2-6';'1.2.40.0.34.5.38.4';'Nasenbein';'https://termgit.elga.gv.at/CodeSystem/appc-anatomie';'';'';'APPC: 1.2.40.0.34.5.38';'22';'2';'L';'';'';''
'1-2-7';'1.2.40.0.34.5.38.4';'Speicheldrüsen';'https://termgit.elga.gv.at/CodeSystem/appc-anatomie';'';'';'APPC: 1.2.40.0.34.5.38';'23';'2';'S';'';'';''
'1-2-7-1';'1.2.40.0.34.5.38.4';'Speicheldrüsengang';'https://termgit.elga.gv.at/CodeSystem/appc-anatomie';'';'';'APPC: 1.2.40.0.34.5.38';'24';'3';'L';'';'';''
'1-2-8';'1.2.40.0.34.5.38.4';'Mundboden';'https://termgit.elga.gv.at/CodeSystem/appc-anatomie';'';'';'APPC: 1.2.40.0.34.5.38';'25';'2';'L';'';'';''
'1-2-9';'1.2.40.0.34.5.38.4';'Jochbogen';'https://termgit.elga.gv.at/CodeSystem/appc-anatomie';'';'';'APPC: 1.2.40.0.34.5.38';'26';'2';'L';'';'';''
'1-2-10';'1.2.40.0.34.5.38.4';'Zunge';'https://termgit.elga.gv.at/CodeSystem/appc-anatomie';'';'';'APPC: 1.2.40.0.34.5.38';'27';'2';'L';'';'';''
'2';'1.2.40.0.34.5.38.4';'Hals';'https://termgit.elga.gv.at/CodeSystem/appc-anatomie';'';'';'APPC: 1.2.40.0.34.5.38';'28';'0';'S';'';'';''
'2-1';'1.2.40.0.34.5.38.4';'Trachea';'https://termgit.elga.gv.at/CodeSystem/appc-anatomie';'';'';'APPC: 1.2.40.0.34.5.38';'29';'1';'L';'';'';''
'2-2';'1.2.40.0.34.5.38.4';'Schilddrüse';'https://termgit.elga.gv.at/CodeSystem/appc-anatomie';'';'';'APPC: 1.2.40.0.34.5.38';'30';'1';'L';'';'';''
'2-3';'1.2.40.0.34.5.38.4';'Nebenschilddrüse';'https://termgit.elga.gv.at/CodeSystem/appc-anatomie';'';'';'APPC: 1.2.40.0.34.5.38';'31';'1';'L';'';'';''
'2-4';'1.2.40.0.34.5.38.4';'Pharynx';'https://termgit.elga.gv.at/CodeSystem/appc-anatomie';'';'';'APPC: 1.2.40.0.34.5.38';'32';'1';'L';'';'';''
'2-5';'1.2.40.0.34.5.38.4';'Ösophagus (cervical)';'https://termgit.elga.gv.at/CodeSystem/appc-anatomie';'';'';'APPC: 1.2.40.0.34.5.38';'33';'1';'L';'';'';''
'2-6';'1.2.40.0.34.5.38.4';'Larynx';'https://termgit.elga.gv.at/CodeSystem/appc-anatomie';'';'';'APPC: 1.2.40.0.34.5.38';'34';'1';'L';'';'';''
'3';'1.2.40.0.34.5.38.4';'Thorax';'https://termgit.elga.gv.at/CodeSystem/appc-anatomie';'';'';'APPC: 1.2.40.0.34.5.38';'35';'0';'S';'';'';''
'3-1';'1.2.40.0.34.5.38.4';'Lunge';'https://termgit.elga.gv.at/CodeSystem/appc-anatomie';'';'';'APPC: 1.2.40.0.34.5.38';'36';'1';'S';'';'';''
'3-1-1';'1.2.40.0.34.5.38.4';'Bronchien';'https://termgit.elga.gv.at/CodeSystem/appc-anatomie';'';'';'APPC: 1.2.40.0.34.5.38';'37';'2';'L';'';'';''
'3-1-2';'1.2.40.0.34.5.38.4';'Pleura';'https://termgit.elga.gv.at/CodeSystem/appc-anatomie';'';'';'APPC: 1.2.40.0.34.5.38';'38';'2';'L';'';'';''
'3-2';'1.2.40.0.34.5.38.4';'Mediastinum';'https://termgit.elga.gv.at/CodeSystem/appc-anatomie';'';'';'APPC: 1.2.40.0.34.5.38';'39';'1';'L';'';'';''
'3-3';'1.2.40.0.34.5.38.4';'Herz';'https://termgit.elga.gv.at/CodeSystem/appc-anatomie';'';'';'APPC: 1.2.40.0.34.5.38';'40';'1';'S';'';'';''
'3-3-1';'1.2.40.0.34.5.38.4';'Myocard';'https://termgit.elga.gv.at/CodeSystem/appc-anatomie';'';'';'APPC: 1.2.40.0.34.5.38';'41';'2';'L';'';'';''
'3-3-2';'1.2.40.0.34.5.38.4';'Klappen';'https://termgit.elga.gv.at/CodeSystem/appc-anatomie';'';'';'APPC: 1.2.40.0.34.5.38';'42';'2';'L';'';'';''
'3-3-3';'1.2.40.0.34.5.38.4';'Reizleitungssystem';'https://termgit.elga.gv.at/CodeSystem/appc-anatomie';'';'';'APPC: 1.2.40.0.34.5.38';'43';'2';'L';'';'';''
'3-4';'1.2.40.0.34.5.38.4';'Ösophagus (thoracal)';'https://termgit.elga.gv.at/CodeSystem/appc-anatomie';'';'';'APPC: 1.2.40.0.34.5.38';'44';'1';'L';'';'';''
'3-5';'1.2.40.0.34.5.38.4';'Thoraxwand';'https://termgit.elga.gv.at/CodeSystem/appc-anatomie';'';'';'APPC: 1.2.40.0.34.5.38';'45';'1';'S';'';'';''
'3-5-1';'1.2.40.0.34.5.38.4';'Knöcherner Thorax';'https://termgit.elga.gv.at/CodeSystem/appc-anatomie';'';'';'APPC: 1.2.40.0.34.5.38';'46';'2';'L';'';'';''
'3-5-2';'1.2.40.0.34.5.38.4';'Sternum';'https://termgit.elga.gv.at/CodeSystem/appc-anatomie';'';'';'APPC: 1.2.40.0.34.5.38';'47';'2';'L';'';'';''
'3-5-3';'1.2.40.0.34.5.38.4';'Rippen';'https://termgit.elga.gv.at/CodeSystem/appc-anatomie';'';'';'APPC: 1.2.40.0.34.5.38';'48';'2';'L';'';'';''
'4';'1.2.40.0.34.5.38.4';'Abdomen';'https://termgit.elga.gv.at/CodeSystem/appc-anatomie';'';'';'APPC: 1.2.40.0.34.5.38';'49';'0';'S';'';'';''
'4-1';'1.2.40.0.34.5.38.4';'Oberbauch';'https://termgit.elga.gv.at/CodeSystem/appc-anatomie';'';'';'APPC: 1.2.40.0.34.5.38';'50';'1';'S';'';'';''
'4-1-1';'1.2.40.0.34.5.38.4';'Leber / Milz';'https://termgit.elga.gv.at/CodeSystem/appc-anatomie';'';'';'APPC: 1.2.40.0.34.5.38';'51';'2';'S';'';'';''
'4-1-1-1';'1.2.40.0.34.5.38.4';'Gallenblase / Gallengang';'https://termgit.elga.gv.at/CodeSystem/appc-anatomie';'';'';'APPC: 1.2.40.0.34.5.38';'52';'3';'L';'';'';''
'4-1-1-2';'1.2.40.0.34.5.38.4';'Leber';'https://termgit.elga.gv.at/CodeSystem/appc-anatomie';'';'';'APPC: 1.2.40.0.34.5.38';'53';'3';'L';'';'';''
'4-1-1-3';'1.2.40.0.34.5.38.4';'Milz';'https://termgit.elga.gv.at/CodeSystem/appc-anatomie';'';'';'APPC: 1.2.40.0.34.5.38';'54';'3';'L';'';'';''
'4-1-2';'1.2.40.0.34.5.38.4';'Pankreas';'https://termgit.elga.gv.at/CodeSystem/appc-anatomie';'';'';'APPC: 1.2.40.0.34.5.38';'55';'2';'S';'';'';''
'4-1-2-1';'1.2.40.0.34.5.38.4';'Pankreasgang';'https://termgit.elga.gv.at/CodeSystem/appc-anatomie';'';'';'APPC: 1.2.40.0.34.5.38';'56';'3';'L';'';'';''
'4-2';'1.2.40.0.34.5.38.4';'Darmtrakt';'https://termgit.elga.gv.at/CodeSystem/appc-anatomie';'';'';'APPC: 1.2.40.0.34.5.38';'57';'1';'S';'';'';''
'4-2-1';'1.2.40.0.34.5.38.4';'Magen / Duodenum';'https://termgit.elga.gv.at/CodeSystem/appc-anatomie';'';'';'APPC: 1.2.40.0.34.5.38';'58';'2';'L';'';'';''
'4-2-2';'1.2.40.0.34.5.38.4';'Dünndam';'https://termgit.elga.gv.at/CodeSystem/appc-anatomie';'';'';'APPC: 1.2.40.0.34.5.38';'59';'2';'L';'';'';''
'4-2-3';'1.2.40.0.34.5.38.4';'Dickdarm';'https://termgit.elga.gv.at/CodeSystem/appc-anatomie';'';'';'APPC: 1.2.40.0.34.5.38';'60';'2';'S';'';'';''
'4-2-3-1';'1.2.40.0.34.5.38.4';'Appendix';'https://termgit.elga.gv.at/CodeSystem/appc-anatomie';'';'';'APPC: 1.2.40.0.34.5.38';'61';'3';'L';'';'';''
'4-2-3-2';'1.2.40.0.34.5.38.4';'Rektum';'https://termgit.elga.gv.at/CodeSystem/appc-anatomie';'';'';'APPC: 1.2.40.0.34.5.38';'62';'3';'L';'';'';''
'4-3';'1.2.40.0.34.5.38.4';'Nebennieren';'https://termgit.elga.gv.at/CodeSystem/appc-anatomie';'';'';'APPC: 1.2.40.0.34.5.38';'63';'1';'L';'';'';''
'4-4';'1.2.40.0.34.5.38.4';'Harntrakt';'https://termgit.elga.gv.at/CodeSystem/appc-anatomie';'';'';'APPC: 1.2.40.0.34.5.38';'64';'1';'S';'';'';''
'4-4-1';'1.2.40.0.34.5.38.4';'Nieren';'https://termgit.elga.gv.at/CodeSystem/appc-anatomie';'';'';'APPC: 1.2.40.0.34.5.38';'65';'2';'S';'';'';''
'4-4-1-1';'1.2.40.0.34.5.38.4';'Nierenbecken';'https://termgit.elga.gv.at/CodeSystem/appc-anatomie';'';'';'APPC: 1.2.40.0.34.5.38';'66';'3';'L';'';'';''
'4-4-2';'1.2.40.0.34.5.38.4';'Ureter';'https://termgit.elga.gv.at/CodeSystem/appc-anatomie';'';'';'APPC: 1.2.40.0.34.5.38';'67';'2';'L';'';'';''
'4-4-3';'1.2.40.0.34.5.38.4';'Harnblase';'https://termgit.elga.gv.at/CodeSystem/appc-anatomie';'';'';'APPC: 1.2.40.0.34.5.38';'68';'2';'L';'';'';''
'4-4-4';'1.2.40.0.34.5.38.4';'Urethra';'https://termgit.elga.gv.at/CodeSystem/appc-anatomie';'';'';'APPC: 1.2.40.0.34.5.38';'69';'2';'L';'';'';''
'4-4-5';'1.2.40.0.34.5.38.4';'NTX';'https://termgit.elga.gv.at/CodeSystem/appc-anatomie';'';'';'APPC: 1.2.40.0.34.5.38';'70';'2';'L';'';'';''
'4-5';'1.2.40.0.34.5.38.4';'Becken / Unterbauch';'https://termgit.elga.gv.at/CodeSystem/appc-anatomie';'';'';'APPC: 1.2.40.0.34.5.38';'71';'1';'S';'';'';''
'4-5-1';'1.2.40.0.34.5.38.4';'Uterus';'https://termgit.elga.gv.at/CodeSystem/appc-anatomie';'';'';'APPC: 1.2.40.0.34.5.38';'72';'2';'L';'';'';''
'4-5-2';'1.2.40.0.34.5.38.4';'Tuben';'https://termgit.elga.gv.at/CodeSystem/appc-anatomie';'';'';'APPC: 1.2.40.0.34.5.38';'73';'2';'L';'';'';''
'4-5-3';'1.2.40.0.34.5.38.4';'Ovar';'https://termgit.elga.gv.at/CodeSystem/appc-anatomie';'';'';'APPC: 1.2.40.0.34.5.38';'74';'2';'L';'';'';''
'4-5-4';'1.2.40.0.34.5.38.4';'Schwangerschaft';'https://termgit.elga.gv.at/CodeSystem/appc-anatomie';'';'';'APPC: 1.2.40.0.34.5.38';'75';'2';'L';'';'';''
'4-5-5';'1.2.40.0.34.5.38.4';'Prostata';'https://termgit.elga.gv.at/CodeSystem/appc-anatomie';'';'';'APPC: 1.2.40.0.34.5.38';'76';'2';'L';'';'';''
'4-5-6';'1.2.40.0.34.5.38.4';'Scrotum /Hoden';'https://termgit.elga.gv.at/CodeSystem/appc-anatomie';'';'';'APPC: 1.2.40.0.34.5.38';'77';'2';'L';'';'';''
'4-5-7';'1.2.40.0.34.5.38.4';'Penis / Corpus Cavernosum';'https://termgit.elga.gv.at/CodeSystem/appc-anatomie';'';'';'APPC: 1.2.40.0.34.5.38';'78';'2';'L';'';'';''
'4-5-8';'1.2.40.0.34.5.38.4';'knöchernes Becken';'https://termgit.elga.gv.at/CodeSystem/appc-anatomie';'';'';'APPC: 1.2.40.0.34.5.38';'79';'2';'L';'';'';''
'4-6';'1.2.40.0.34.5.38.4';'Bauchdecke';'https://termgit.elga.gv.at/CodeSystem/appc-anatomie';'';'';'APPC: 1.2.40.0.34.5.38';'80';'1';'L';'';'';''
'4-7';'1.2.40.0.34.5.38.4';'Retroperitoneum';'https://termgit.elga.gv.at/CodeSystem/appc-anatomie';'';'';'APPC: 1.2.40.0.34.5.38';'81';'1';'L';'';'';''
'5';'1.2.40.0.34.5.38.4';'Muskulo-Skelettal';'https://termgit.elga.gv.at/CodeSystem/appc-anatomie';'';'Muskulo-Skeletal';'APPC: 1.2.40.0.34.5.38';'82';'0';'S';'';'';''
'5-1';'1.2.40.0.34.5.38.4';'Arm (gesamt)';'https://termgit.elga.gv.at/CodeSystem/appc-anatomie';'';'';'APPC: 1.2.40.0.34.5.38';'83';'1';'S';'';'';''
'5-1-1';'1.2.40.0.34.5.38.4';'Schulter';'https://termgit.elga.gv.at/CodeSystem/appc-anatomie';'';'';'APPC: 1.2.40.0.34.5.38';'84';'2';'S';'';'';''
'5-1-1-1';'1.2.40.0.34.5.38.4';'Schulterblatt';'https://termgit.elga.gv.at/CodeSystem/appc-anatomie';'';'';'APPC: 1.2.40.0.34.5.38';'85';'3';'L';'';'';''
'5-1-1-2';'1.2.40.0.34.5.38.4';'Clavicula';'https://termgit.elga.gv.at/CodeSystem/appc-anatomie';'';'';'APPC: 1.2.40.0.34.5.38';'86';'3';'L';'';'';''
'5-1-1-3';'1.2.40.0.34.5.38.4';'Sternoclaviculargelenk';'https://termgit.elga.gv.at/CodeSystem/appc-anatomie';'';'';'APPC: 1.2.40.0.34.5.38';'87';'3';'L';'';'';''
'5-1-1-4';'1.2.40.0.34.5.38.4';'Acromio-Claviculargelenk';'https://termgit.elga.gv.at/CodeSystem/appc-anatomie';'';'';'APPC: 1.2.40.0.34.5.38';'88';'3';'L';'';'';''
'5-1-2';'1.2.40.0.34.5.38.4';'Axilla';'https://termgit.elga.gv.at/CodeSystem/appc-anatomie';'';'';'APPC: 1.2.40.0.34.5.38';'89';'2';'L';'';'';''
'5-1-3';'1.2.40.0.34.5.38.4';'Oberarm';'https://termgit.elga.gv.at/CodeSystem/appc-anatomie';'';'';'APPC: 1.2.40.0.34.5.38';'90';'2';'L';'';'';''
'5-1-4';'1.2.40.0.34.5.38.4';'Ellenbogen';'https://termgit.elga.gv.at/CodeSystem/appc-anatomie';'';'';'APPC: 1.2.40.0.34.5.38';'91';'2';'L';'';'';''
'5-1-5';'1.2.40.0.34.5.38.4';'Unterarm';'https://termgit.elga.gv.at/CodeSystem/appc-anatomie';'';'';'APPC: 1.2.40.0.34.5.38';'92';'2';'L';'';'';''
'5-1-7';'1.2.40.0.34.5.38.4';'Hand';'https://termgit.elga.gv.at/CodeSystem/appc-anatomie';'';'';'APPC: 1.2.40.0.34.5.38';'93';'2';'S';'';'';''
'5-1-7-1';'1.2.40.0.34.5.38.4';'Finger';'https://termgit.elga.gv.at/CodeSystem/appc-anatomie';'';'';'APPC: 1.2.40.0.34.5.38';'94';'3';'L';'';'';''
'5-1-7-2';'1.2.40.0.34.5.38.4';'Handgelenk';'https://termgit.elga.gv.at/CodeSystem/appc-anatomie';'';'';'APPC: 1.2.40.0.34.5.38';'95';'3';'L';'';'';''
'5-1-7-3';'1.2.40.0.34.5.38.4';'Mittelhand';'https://termgit.elga.gv.at/CodeSystem/appc-anatomie';'';'';'APPC: 1.2.40.0.34.5.38';'96';'3';'L';'';'';''
'5-1-7-4';'1.2.40.0.34.5.38.4';'Handwurzel';'https://termgit.elga.gv.at/CodeSystem/appc-anatomie';'';'';'APPC: 1.2.40.0.34.5.38';'97';'3';'L';'';'';''
'5-2';'1.2.40.0.34.5.38.4';'Bein (gesamt)';'https://termgit.elga.gv.at/CodeSystem/appc-anatomie';'';'';'APPC: 1.2.40.0.34.5.38';'98';'1';'S';'';'';''
'5-2-1';'1.2.40.0.34.5.38.4';'Hüfte';'https://termgit.elga.gv.at/CodeSystem/appc-anatomie';'';'';'APPC: 1.2.40.0.34.5.38';'99';'2';'L';'';'';''
'5-2-2';'1.2.40.0.34.5.38.4';'Inguinal Region';'https://termgit.elga.gv.at/CodeSystem/appc-anatomie';'';'';'APPC: 1.2.40.0.34.5.38';'100';'2';'L';'';'';''
'5-2-3';'1.2.40.0.34.5.38.4';'Oberschenkel';'https://termgit.elga.gv.at/CodeSystem/appc-anatomie';'';'';'APPC: 1.2.40.0.34.5.38';'101';'2';'L';'';'';''
'5-2-4';'1.2.40.0.34.5.38.4';'Knie';'https://termgit.elga.gv.at/CodeSystem/appc-anatomie';'';'';'APPC: 1.2.40.0.34.5.38';'102';'2';'S';'';'';''
'5-2-4-1';'1.2.40.0.34.5.38.4';'Patella';'https://termgit.elga.gv.at/CodeSystem/appc-anatomie';'';'';'APPC: 1.2.40.0.34.5.38';'103';'3';'L';'';'';''
'5-2-5';'1.2.40.0.34.5.38.4';'Unterschenkel';'https://termgit.elga.gv.at/CodeSystem/appc-anatomie';'';'';'APPC: 1.2.40.0.34.5.38';'104';'2';'L';'';'';''
'5-2-6';'1.2.40.0.34.5.38.4';'Sprunggelenk';'https://termgit.elga.gv.at/CodeSystem/appc-anatomie';'';'';'APPC: 1.2.40.0.34.5.38';'105';'2';'L';'';'';''
'5-2-7';'1.2.40.0.34.5.38.4';'Fuß';'https://termgit.elga.gv.at/CodeSystem/appc-anatomie';'';'';'APPC: 1.2.40.0.34.5.38';'106';'2';'S';'';'';''
'5-2-7-1';'1.2.40.0.34.5.38.4';'Zehe';'https://termgit.elga.gv.at/CodeSystem/appc-anatomie';'';'';'APPC: 1.2.40.0.34.5.38';'107';'3';'L';'';'';''
'5-2-7-2';'1.2.40.0.34.5.38.4';'Fersenbein';'https://termgit.elga.gv.at/CodeSystem/appc-anatomie';'';'';'APPC: 1.2.40.0.34.5.38';'108';'3';'L';'';'';''
'5-2-7-3';'1.2.40.0.34.5.38.4';'Mittelfuß';'https://termgit.elga.gv.at/CodeSystem/appc-anatomie';'';'';'APPC: 1.2.40.0.34.5.38';'109';'3';'L';'';'';''
'5-2-7-4';'1.2.40.0.34.5.38.4';'Fußwurzel';'https://termgit.elga.gv.at/CodeSystem/appc-anatomie';'';'';'APPC: 1.2.40.0.34.5.38';'110';'3';'L';'';'';''
'5-2-7-5';'1.2.40.0.34.5.38.4';'Achillessehne';'https://termgit.elga.gv.at/CodeSystem/appc-anatomie';'';'';'APPC: 1.2.40.0.34.5.38';'111';'3';'L';'';'';''
'5-2-7-6';'1.2.40.0.34.5.38.4';'Vorfuß';'https://termgit.elga.gv.at/CodeSystem/appc-anatomie';'';'';'APPC: 1.2.40.0.34.5.38';'112';'3';'L';'';'';''
'5-3';'1.2.40.0.34.5.38.4';'Wirbelsäule';'https://termgit.elga.gv.at/CodeSystem/appc-anatomie';'';'';'APPC: 1.2.40.0.34.5.38';'113';'1';'S';'';'';''
'5-3-1';'1.2.40.0.34.5.38.4';'Halswirbelsäule';'https://termgit.elga.gv.at/CodeSystem/appc-anatomie';'';'';'APPC: 1.2.40.0.34.5.38';'114';'2';'L';'';'';''
'5-3-2';'1.2.40.0.34.5.38.4';'Brustwirbelsäule';'https://termgit.elga.gv.at/CodeSystem/appc-anatomie';'';'';'APPC: 1.2.40.0.34.5.38';'115';'2';'L';'';'';''
'5-3-3';'1.2.40.0.34.5.38.4';'Lendenwirbelsäule';'https://termgit.elga.gv.at/CodeSystem/appc-anatomie';'';'';'APPC: 1.2.40.0.34.5.38';'116';'2';'L';'';'';''
'5-3-4';'1.2.40.0.34.5.38.4';'Kreuz / Steißbein / Sacro-Iliacalgelenke';'https://termgit.elga.gv.at/CodeSystem/appc-anatomie';'';'';'APPC: 1.2.40.0.34.5.38';'117';'2';'L';'';'';''
'5-3-5';'1.2.40.0.34.5.38.4';'Gesamtaufnahme der Wirbelsäule';'https://termgit.elga.gv.at/CodeSystem/appc-anatomie';'';'';'APPC: 1.2.40.0.34.5.38';'118';'2';'L';'';'';''
'6';'1.2.40.0.34.5.38.4';'Gefäßsystem';'https://termgit.elga.gv.at/CodeSystem/appc-anatomie';'';'';'APPC: 1.2.40.0.34.5.38';'119';'0';'S';'';'';''
'6-1';'1.2.40.0.34.5.38.4';'Gefäße arteriell';'https://termgit.elga.gv.at/CodeSystem/appc-anatomie';'';'';'APPC: 1.2.40.0.34.5.38';'120';'1';'S';'';'';''
'6-1-1';'1.2.40.0.34.5.38.4';'intrakraniell';'https://termgit.elga.gv.at/CodeSystem/appc-anatomie';'';'';'APPC: 1.2.40.0.34.5.38';'121';'2';'S';'';'';''
'6-1-1-1';'1.2.40.0.34.5.38.4';'A. cerebri anterior';'https://termgit.elga.gv.at/CodeSystem/appc-anatomie';'';'';'APPC: 1.2.40.0.34.5.38';'122';'3';'L';'';'';''
'6-1-1-2';'1.2.40.0.34.5.38.4';'A.cerebri media';'https://termgit.elga.gv.at/CodeSystem/appc-anatomie';'';'';'APPC: 1.2.40.0.34.5.38';'123';'3';'L';'';'';''
'6-1-1-3';'1.2.40.0.34.5.38.4';'A. cerebri posterior';'https://termgit.elga.gv.at/CodeSystem/appc-anatomie';'';'';'APPC: 1.2.40.0.34.5.38';'124';'3';'L';'';'';''
'6-1-1-4';'1.2.40.0.34.5.38.4';'A basilaris';'https://termgit.elga.gv.at/CodeSystem/appc-anatomie';'';'';'APPC: 1.2.40.0.34.5.38';'125';'3';'L';'';'';''
'6-1-1-5';'1.2.40.0.34.5.38.4';'Circulus arteriosus';'https://termgit.elga.gv.at/CodeSystem/appc-anatomie';'';'';'APPC: 1.2.40.0.34.5.38';'126';'3';'L';'';'';''
'6-1-2';'1.2.40.0.34.5.38.4';'Aorta';'https://termgit.elga.gv.at/CodeSystem/appc-anatomie';'';'';'APPC: 1.2.40.0.34.5.38';'127';'2';'S';'';'';''
'6-1-2-1';'1.2.40.0.34.5.38.4';'thorakal';'https://termgit.elga.gv.at/CodeSystem/appc-anatomie';'';'';'APPC: 1.2.40.0.34.5.38';'128';'3';'L';'';'';''
'6-1-2-2';'1.2.40.0.34.5.38.4';'abdominal';'https://termgit.elga.gv.at/CodeSystem/appc-anatomie';'';'';'APPC: 1.2.40.0.34.5.38';'129';'3';'L';'';'';''
'6-1-3';'1.2.40.0.34.5.38.4';'Aortenäste';'https://termgit.elga.gv.at/CodeSystem/appc-anatomie';'';'';'APPC: 1.2.40.0.34.5.38';'130';'2';'S';'';'';''
'6-1-3-1';'1.2.40.0.34.5.38.4';'Hals (Carotis / Vertebralis)';'https://termgit.elga.gv.at/CodeSystem/appc-anatomie';'';'';'APPC: 1.2.40.0.34.5.38';'131';'3';'S';'';'';''
'6-1-3-1-1';'1.2.40.0.34.5.38.4';'Carotis';'https://termgit.elga.gv.at/CodeSystem/appc-anatomie';'';'';'APPC: 1.2.40.0.34.5.38';'132';'4';'L';'';'';''
'6-1-3-1-2';'1.2.40.0.34.5.38.4';'Carotis externa';'https://termgit.elga.gv.at/CodeSystem/appc-anatomie';'';'';'APPC: 1.2.40.0.34.5.38';'133';'4';'L';'';'';''
'6-1-3-1-3';'1.2.40.0.34.5.38.4';'Carotis interna';'https://termgit.elga.gv.at/CodeSystem/appc-anatomie';'';'';'APPC: 1.2.40.0.34.5.38';'134';'4';'L';'';'';''
'6-1-3-1-4';'1.2.40.0.34.5.38.4';'Vertebralis';'https://termgit.elga.gv.at/CodeSystem/appc-anatomie';'';'';'APPC: 1.2.40.0.34.5.38';'135';'4';'L';'';'';''
'6-1-3-2';'1.2.40.0.34.5.38.4';'Coronarien';'https://termgit.elga.gv.at/CodeSystem/appc-anatomie';'';'';'APPC: 1.2.40.0.34.5.38';'136';'3';'L';'';'';''
'6-1-3-3';'1.2.40.0.34.5.38.4';'Pulmonalgefäße';'https://termgit.elga.gv.at/CodeSystem/appc-anatomie';'';'';'APPC: 1.2.40.0.34.5.38';'137';'3';'L';'';'';''
'6-1-3-4';'1.2.40.0.34.5.38.4';'visceral';'https://termgit.elga.gv.at/CodeSystem/appc-anatomie';'';'';'APPC: 1.2.40.0.34.5.38';'138';'3';'S';'';'';''
'6-1-3-4-1';'1.2.40.0.34.5.38.4';'Truncus coeliacus';'https://termgit.elga.gv.at/CodeSystem/appc-anatomie';'';'';'APPC: 1.2.40.0.34.5.38';'139';'4';'L';'';'';''
'6-1-3-4-2';'1.2.40.0.34.5.38.4';'A. mesenterica superior';'https://termgit.elga.gv.at/CodeSystem/appc-anatomie';'';'';'APPC: 1.2.40.0.34.5.38';'140';'4';'L';'';'';''
'6-1-3-4-3';'1.2.40.0.34.5.38.4';'A. mesenterica inferior';'https://termgit.elga.gv.at/CodeSystem/appc-anatomie';'';'';'APPC: 1.2.40.0.34.5.38';'141';'4';'L';'';'';''
'6-1-3-4-4';'1.2.40.0.34.5.38.4';'A. spinalis';'https://termgit.elga.gv.at/CodeSystem/appc-anatomie';'';'';'APPC: 1.2.40.0.34.5.38';'142';'4';'L';'';'';''
'6-1-3-5';'1.2.40.0.34.5.38.4';'Nierenarterien';'https://termgit.elga.gv.at/CodeSystem/appc-anatomie';'';'';'APPC: 1.2.40.0.34.5.38';'143';'3';'L';'';'';''
'6-1-3-6';'1.2.40.0.34.5.38.4';'Armarterien';'https://termgit.elga.gv.at/CodeSystem/appc-anatomie';'';'';'APPC: 1.2.40.0.34.5.38';'144';'3';'S';'';'';''
'6-1-3-6-1';'1.2.40.0.34.5.38.4';'Subclavia / Truncus Brachiocephalicus';'https://termgit.elga.gv.at/CodeSystem/appc-anatomie';'';'';'APPC: 1.2.40.0.34.5.38';'145';'4';'L';'';'';''
'6-1-3-6-2';'1.2.40.0.34.5.38.4';'Oberarm';'https://termgit.elga.gv.at/CodeSystem/appc-anatomie';'';'';'APPC: 1.2.40.0.34.5.38';'146';'4';'L';'';'';''
'6-1-3-6-3';'1.2.40.0.34.5.38.4';'Unterarm';'https://termgit.elga.gv.at/CodeSystem/appc-anatomie';'';'';'APPC: 1.2.40.0.34.5.38';'147';'4';'L';'';'';''
'6-1-3-6-4';'1.2.40.0.34.5.38.4';'Hand';'https://termgit.elga.gv.at/CodeSystem/appc-anatomie';'';'';'APPC: 1.2.40.0.34.5.38';'148';'4';'L';'';'';''
'6-1-3-7';'1.2.40.0.34.5.38.4';'Beinarterien';'https://termgit.elga.gv.at/CodeSystem/appc-anatomie';'';'';'APPC: 1.2.40.0.34.5.38';'149';'3';'S';'';'';''
'6-1-3-7-1';'1.2.40.0.34.5.38.4';'Iliaca';'https://termgit.elga.gv.at/CodeSystem/appc-anatomie';'';'';'APPC: 1.2.40.0.34.5.38';'150';'4';'L';'';'';''
'6-1-3-7-2';'1.2.40.0.34.5.38.4';'Oberschenkel';'https://termgit.elga.gv.at/CodeSystem/appc-anatomie';'';'';'APPC: 1.2.40.0.34.5.38';'151';'4';'L';'';'';''
'6-1-3-7-3';'1.2.40.0.34.5.38.4';'Unterschenkel';'https://termgit.elga.gv.at/CodeSystem/appc-anatomie';'';'';'APPC: 1.2.40.0.34.5.38';'152';'4';'L';'';'';''
'6-1-3-7-4';'1.2.40.0.34.5.38.4';'Fuß';'https://termgit.elga.gv.at/CodeSystem/appc-anatomie';'';'';'APPC: 1.2.40.0.34.5.38';'153';'4';'L';'';'';''
'6-1-4';'1.2.40.0.34.5.38.4';'Dialyseshunt';'https://termgit.elga.gv.at/CodeSystem/appc-anatomie';'';'';'APPC: 1.2.40.0.34.5.38';'154';'2';'L';'';'';''
'6-2';'1.2.40.0.34.5.38.4';'Gefäße venös';'https://termgit.elga.gv.at/CodeSystem/appc-anatomie';'';'';'APPC: 1.2.40.0.34.5.38';'155';'1';'S';'';'';''
'6-2-1';'1.2.40.0.34.5.38.4';'Sinus cerebrales';'https://termgit.elga.gv.at/CodeSystem/appc-anatomie';'';'';'APPC: 1.2.40.0.34.5.38';'156';'2';'L';'';'';''
'6-2-2';'1.2.40.0.34.5.38.4';'Armvenen';'https://termgit.elga.gv.at/CodeSystem/appc-anatomie';'';'';'APPC: 1.2.40.0.34.5.38';'157';'2';'S';'';'';''
'6-2-2-1';'1.2.40.0.34.5.38.4';'Subclavia';'https://termgit.elga.gv.at/CodeSystem/appc-anatomie';'';'';'APPC: 1.2.40.0.34.5.38';'158';'3';'L';'';'';''
'6-2-2-2';'1.2.40.0.34.5.38.4';'Oberarm';'https://termgit.elga.gv.at/CodeSystem/appc-anatomie';'';'';'APPC: 1.2.40.0.34.5.38';'159';'3';'L';'';'';''
'6-2-2-3';'1.2.40.0.34.5.38.4';'Unterarm';'https://termgit.elga.gv.at/CodeSystem/appc-anatomie';'';'';'APPC: 1.2.40.0.34.5.38';'160';'3';'L';'';'';''
'6-2-2-4';'1.2.40.0.34.5.38.4';'Hand';'https://termgit.elga.gv.at/CodeSystem/appc-anatomie';'';'';'APPC: 1.2.40.0.34.5.38';'161';'3';'L';'';'';''
'6-2-3';'1.2.40.0.34.5.38.4';'Cava superior';'https://termgit.elga.gv.at/CodeSystem/appc-anatomie';'';'';'APPC: 1.2.40.0.34.5.38';'162';'2';'L';'';'';''
'6-2-4';'1.2.40.0.34.5.38.4';'Cava inferior';'https://termgit.elga.gv.at/CodeSystem/appc-anatomie';'';'';'APPC: 1.2.40.0.34.5.38';'163';'2';'L';'';'';''
'6-2-5';'1.2.40.0.34.5.38.4';'Lebervenen';'https://termgit.elga.gv.at/CodeSystem/appc-anatomie';'';'';'APPC: 1.2.40.0.34.5.38';'164';'2';'L';'';'';''
'6-2-6';'1.2.40.0.34.5.38.4';'Nierenvenen';'https://termgit.elga.gv.at/CodeSystem/appc-anatomie';'';'';'APPC: 1.2.40.0.34.5.38';'165';'2';'S';'';'';''
'6-2-6-1';'1.2.40.0.34.5.38.4';'V. spermatica / ovarica';'https://termgit.elga.gv.at/CodeSystem/appc-anatomie';'';'';'APPC: 1.2.40.0.34.5.38';'166';'3';'L';'';'';''
'6-2-7';'1.2.40.0.34.5.38.4';'Beinvenen';'https://termgit.elga.gv.at/CodeSystem/appc-anatomie';'';'';'APPC: 1.2.40.0.34.5.38';'167';'2';'S';'';'';''
'6-2-7-1';'1.2.40.0.34.5.38.4';'Iliaca / Bein';'https://termgit.elga.gv.at/CodeSystem/appc-anatomie';'';'';'APPC: 1.2.40.0.34.5.38';'168';'3';'L';'';'';''
'6-2-7-2';'1.2.40.0.34.5.38.4';'Oberschenkel';'https://termgit.elga.gv.at/CodeSystem/appc-anatomie';'';'';'APPC: 1.2.40.0.34.5.38';'169';'3';'L';'';'';''
'6-2-7-3';'1.2.40.0.34.5.38.4';'Unterschenkel';'https://termgit.elga.gv.at/CodeSystem/appc-anatomie';'';'';'APPC: 1.2.40.0.34.5.38';'170';'3';'L';'';'';''
'6-2-7-4';'1.2.40.0.34.5.38.4';'Fuß';'https://termgit.elga.gv.at/CodeSystem/appc-anatomie';'';'';'APPC: 1.2.40.0.34.5.38';'171';'3';'L';'';'';''
'6-2-8';'1.2.40.0.34.5.38.4';'V. jugularis';'https://termgit.elga.gv.at/CodeSystem/appc-anatomie';'';'';'APPC: 1.2.40.0.34.5.38';'172';'2';'L';'';'';''
'6-2-9';'1.2.40.0.34.5.38.4';'Pfortader';'https://termgit.elga.gv.at/CodeSystem/appc-anatomie';'';'';'APPC: 1.2.40.0.34.5.38';'173';'2';'L';'';'';''
'6-2-10';'1.2.40.0.34.5.38.4';'viszerale Venen';'https://termgit.elga.gv.at/CodeSystem/appc-anatomie';'';'';'APPC: 1.2.40.0.34.5.38';'174';'2';'L';'';'';''
'6-3';'1.2.40.0.34.5.38.4';'Lymphgefäße und Lymphknoten';'https://termgit.elga.gv.at/CodeSystem/appc-anatomie';'';'';'APPC: 1.2.40.0.34.5.38';'175';'1';'S';'';'';''
'6-3-1';'1.2.40.0.34.5.38.4';'Ganzkörper';'https://termgit.elga.gv.at/CodeSystem/appc-anatomie';'';'';'APPC: 1.2.40.0.34.5.38';'176';'2';'L';'';'';''
'6-3-2';'1.2.40.0.34.5.38.4';'Kopf';'https://termgit.elga.gv.at/CodeSystem/appc-anatomie';'';'';'APPC: 1.2.40.0.34.5.38';'177';'2';'L';'';'';''
'6-3-3';'1.2.40.0.34.5.38.4';'Hals';'https://termgit.elga.gv.at/CodeSystem/appc-anatomie';'';'';'APPC: 1.2.40.0.34.5.38';'178';'2';'L';'';'';''
'6-3-4';'1.2.40.0.34.5.38.4';'Thorax';'https://termgit.elga.gv.at/CodeSystem/appc-anatomie';'';'';'APPC: 1.2.40.0.34.5.38';'179';'2';'L';'';'';''
'6-3-5';'1.2.40.0.34.5.38.4';'Abdomen';'https://termgit.elga.gv.at/CodeSystem/appc-anatomie';'';'';'APPC: 1.2.40.0.34.5.38';'180';'2';'L';'';'';''
'6-3-6';'1.2.40.0.34.5.38.4';'Arm';'https://termgit.elga.gv.at/CodeSystem/appc-anatomie';'';'';'APPC: 1.2.40.0.34.5.38';'181';'2';'L';'';'';''
'6-3-7';'1.2.40.0.34.5.38.4';'Bein';'https://termgit.elga.gv.at/CodeSystem/appc-anatomie';'';'';'APPC: 1.2.40.0.34.5.38';'182';'2';'L';'';'';''
'7';'1.2.40.0.34.5.38.4';'Mamma';'https://termgit.elga.gv.at/CodeSystem/appc-anatomie';'';'';'APPC: 1.2.40.0.34.5.38';'183';'0';'S';'';'';''
'7-1';'1.2.40.0.34.5.38.4';'Milchgang';'https://termgit.elga.gv.at/CodeSystem/appc-anatomie';'';'';'APPC: 1.2.40.0.34.5.38';'184';'1';'L';'';'';''
'10';'1.2.40.0.34.5.38.4';'Nervensystem';'https://termgit.elga.gv.at/CodeSystem/appc-anatomie';'';'';'APPC: 1.2.40.0.34.5.38';'185';'0';'S';'';'';''
'10-1';'1.2.40.0.34.5.38.4';'Plexus cervicobrachialis';'https://termgit.elga.gv.at/CodeSystem/appc-anatomie';'';'';'APPC: 1.2.40.0.34.5.38';'186';'1';'L';'';'';''
'10-2';'1.2.40.0.34.5.38.4';'N. ulnaris';'https://termgit.elga.gv.at/CodeSystem/appc-anatomie';'';'';'APPC: 1.2.40.0.34.5.38';'187';'1';'L';'';'';''
'10-3';'1.2.40.0.34.5.38.4';'N. medianus';'https://termgit.elga.gv.at/CodeSystem/appc-anatomie';'';'';'APPC: 1.2.40.0.34.5.38';'188';'1';'L';'';'';''
